Final Project: Network Intrusion Detection
…
Developing and implementing a systematic approach to detect instances of intrusions in log files

From the above steps we were able to achieve classificatio of intrusions fron benign sessions and get different types of network intrusions as well. Now we explore the anomaly detection task.

Here we will be studying the various data points that are neither benign nor network intrusions, but should be analyzed for reducing risks and reducing costs of network intrusions in the bank network.

#anomaly detection

#https://cran.r-project.org/web/packages/anomalyDetection/vignettes/Introduction.html : citation for anomalyDetection package and steps

#state vector creation
tabulate_state_vector(network.reduced, 10)

## # A tibble: 299 x 97
##     auth domain_u dst_bytes_105 dst_bytes_145 dst_bytes_146 dst_bytes_147
##    <dbl>    <dbl>         <dbl>         <dbl>         <dbl>         <dbl>
##  1     0     0             0                0          0             0   
##  2     0     0             0                0          1.00          0   
##  3     0     0             0                0          0             0   
##  4     0     1.00          0                0          0             0   
##  5     0     2.00          0                0          0             0   
##  6     0     0             0                0          0             0   
##  7     0     0             1.00             0          0             0   
##  8     0     4.00          0                0          2.00          0   
##  9     0     6.00          0                0          0             1.00
## 10     0     1.00          0                0          0             0   
## # ... with 289 more rows, and 91 more variables: dst_bytes_328 <dbl>,
## #   dst_bytes_330 <dbl>, dst_bytes_331 <dbl>, dst_bytes_332 <dbl>,
## #   dst_bytes_333 <dbl>, dst_bytes_42 <dbl>, dst_bytes_48 <dbl>,
## #   duration.transformed_1 <dbl>, duration.transformed_2 <dbl>,
## #   duration.transformed_281 <dbl>, duration.transformed_283 <dbl>,
## #   duration.transformed_3 <dbl>, duration.transformed_4 <dbl>,
## #   duration.transformed_5 <dbl>, duration.transformed_6 <dbl>,
## #   duration.transformed_806 <dbl>, duration.transformed_902 <dbl>, eco_i
## #   <dbl>, ecr_i <dbl>, finger <dbl>, ftp <dbl>, ftp_data <dbl>, hot_1
…
we are using the anomalyDetection package of R to check for anomalies in the dataset.

In the first step towards anomaly detection, we create a state vector matrix based on our data that is divided into 10 time blocks.

#multicollinearity adjustment
(state_vec <- network.reduced %>%
  tabulate_state_vector(10) %>%
  mc_adjust())

## # A tibble: 299 x 30
##    domain_u dst_bytes_105 dst_bytes_145 dst_bytes_146 dst_bytes_147
##       <dbl>         <dbl>         <dbl>         <dbl>         <dbl>
##  1     0             0                0          0             0   
##  2     0             0                0          1.00          0   
##  3     0             0                0          0             0   
##  4     1.00          0                0          0             0   
##  5     2.00          0                0          0             0   
##  6     0             0                0          0             0   
##  7     0             1.00             0          0             0   
##  8     4.00          0                0          2.00          0   
##  9     6.00          0                0          0             1.00
## 10     1.00          0                0          0             0   
## # ... with 289 more rows, and 25 more variables: dst_bytes_42 <dbl>,
## #   duration.transformed_1 <dbl>, duration.transformed_2 <dbl>,
## #   duration.transformed_281 <dbl>, ftp <dbl>, ftp_data <dbl>, hot_2
## #   <dbl>, http <dbl>, icmp <dbl>, is_intrusion_1 <dbl>, logged_in_1
## #   <dbl>, private <dbl>, REJ <dbl>, RSTR <dbl>, S0 <dbl>, SF <dbl>, smtp
## #   <dbl>, source_rate_12 <dbl>, source_rate_30 <dbl>, source_rate_44
## #   <dbl>, source_rate_46 <dbl>, src_bytes_146 <dbl>, tcp <dbl>,
## #   transmission_rate_105 <dbl>, transmission_rate_92 <dbl>

The next step will be to use the mc_adjust to handle issues with multi-collinearity by removing columns which have near zero variance. The function then linearly removes dependent columns. Finally, it removes columns that have high absolute correlation value equal to or greater than max_cor.

#multivariate statistical analysis
state_vec %>%
  mahalanobis_distance("both", normalize = TRUE) %>%
  as_tibble

## # A tibble: 299 x 31
##       MD domain_u_BD dst_bytes_105_BD dst_bytes_145_BD dst_bytes_146_BD
##    <dbl>       <dbl>            <dbl>            <dbl>            <dbl>
##  1  2.60     0.00257          0.00452          0.00524          0.00364
##  2  2.87     0.00257          0.00452          0.00524          0.00758
##  3  2.60     0.00257          0.00452          0.00524          0.00364
##  4 32.8      0.00158          0.00452          0.00524          0.00364
##  5 10.2      0.00573          0.00452          0.00524          0.00364
##  6  2.60     0.00257          0.00452          0.00524          0.00364
##  7 32.6      0.00257          0.0201           0.00524          0.00364
##  8 72.2      0.0140           0.00452          0.00524          0.0188 
##  9 51.6      0.0223           0.00452          0.00524          0.00364
## 10 11.7      0.00158          0.00452          0.00524          0.00364
## # ... with 289 more rows, and 26 more variables: dst_bytes_147_BD <dbl>,
## #   dst_bytes_42_BD <dbl>, duration.transformed_1_BD <dbl>,
## #   duration.transformed_2_BD <dbl>, duration.transformed_281_BD <dbl>,
## #   ftp_BD <dbl>, ftp_data_BD <dbl>, hot_2_BD <dbl>, http_BD <dbl>,
## #   icmp_BD <dbl>, is_intrusion_1_BD <dbl>, logged_in_1_BD <dbl>,
## #   private_BD <dbl>, REJ_BD <dbl>, RSTR_BD <dbl>, S0_BD <dbl>, SF_BD
## #   <dbl>, smtp_BD <dbl>, source_rate_12_BD <dbl>, source_rate_30_BD
## #   <dbl>, source_rate_44_BD <dbl>, source_rate_46_BD <dbl>,
## #   src_bytes_146_BD <dbl>, tcp_BD <dbl>, transmission_rate_105_BD <dbl>,
…
For easy access to these results we can use the factor_analysis_results parsing function.

state_vec %>%
  horns_curve() %>%
  factor_analysis(state_vec, hc_points = .) %>%
  factor_analysis_results(4) %>%
  as_tibble

## # A tibble: 299 x 9
##        V1     V2      V3    V4     V5     V6     V7      V8     V9
##     <dbl>  <dbl>   <dbl> <dbl>  <dbl>  <dbl>  <dbl>   <dbl>  <dbl>
##  1  0.563 -0.332 -0.425  0.340  0.694 -0.200  0.226 -0.566   0.712
##  2 -0.108 -0.314 -0.287  0.347  0.741 -0.245  0.386 -0.395   0.403
##  3  0.563 -0.332 -0.425  0.340  0.694 -0.200  0.226 -0.566   0.712
##  4  0.333 -0.245  0.759  0.664 -2.52  -0.258  0.389 -0.418   0.669
##  5  0.339  0.217 -0.453  0.271  0.596 -0.125  0.115 -0.520   0.801
##  6  0.563 -0.332 -0.425  0.340  0.694 -0.200  0.226 -0.566   0.712
##  7  0.217 -0.340 -0.387  0.403  0.807  0.453  0.295 -0.382   0.354
##  8 -1.30   1.81  -0.0111 0.463 -0.127 -0.590 -0.171  0.738  -0.298
##  9 -0.214  2.92  -0.538  0.503 -0.615  0.106 -0.538  0.0951  0.785
## 10  0.382 -0.121 -0.500  0.452 -0.661 -0.186  0.258 -0.124   0.744
## # ... with 289 more rows
…
